{
  "data": {
    "url": "http://chosun.com"
  },
  "contents": {
    "en": "\uba54\uc2dc\uc9c0@2016-08-02 13:02:20.162797+09:00"
  },
  "headings": {
    "en": "\ud0c0\uc774\ud2c01"
  },
  "small_icon": "ic_stat_1",
  "app_id": "b7d8989f-5ece-4c7a-96f4-51b4a38da284",
  "tags": [
    {
      "relation": "=",
      "value": "0",
      "key": "id"
    },
    {
      "operator": "OR"
    },
    {
      "relation": "=",
      "value": "1",
      "key": "id"
    },
    {
      "operator": "OR"
    },
    {
      "relation": "=",
      "value": "jayyun",
      "key": "id"
    }
  ]
}